0 0 0 1
0 1 -1 0
-2 1 -1 0
-4 1 -1 0
-6 1 -1 0
-8 1 -1 0
-10 1 0 -1
-9 1 -1 0
-7 1 -1 0
-5 1 -1 0
-3 1 0 -1
-3 -1 0 -1
-3 -3 -1 0
-5 -3 -1 0
-6 -3 0 -1
-4 -3 -1 0
-6 -4 -1 0
-6 -5 -1 0
-6 -3 0 -1
-7 -3 -1 0
-5 -3 -1 0
-3 -2 0 -1
-3 -4 -1 0
-5 -4 0 -1
-5 -6 -1 0
-5 -5 0 -1
-4 -4 0 -1
-4 -6 0 -1
-4 -8 -1 0
-4 -7 0 -1
-4 -5 0 -1
-3 -3 0 -1
-3 -5 0 -1
-3 -6 1 0
-3 -4 0 -1
-2 -6 0 -1
-1 -6 1 0
-3 -6 1 0
-3 -7 0 -1
-3 -5 0 -1
-3 0 -1 0
-5 0 -1 0
-7 0 -1 0
-8 0 0 -1
-6 0 -1 0
-4 0 -1 0
-6 0 0 -1
-7 0 0 -1
-5 0 -1 0
-1 1 0 1
-1 2 -1 0
-3 2 -1 0
-5 2 -1 0
-7 2 -1 0
-9 2 -1 0
-11 2 -1 0
-13 2 0 1
-12 2 -1 0
-10 2 -1 0
-8 2 -1 0
-6 2 -1 0
-4 2 -1 0
-8 2 0 1
-10 0 -1 0
-10 -1 0 -1
-10 1 0 -1
-11 1 -1 0
-9 1 -1 0
-9 0 0 -1
-9 2 0 -1
-7 2 -1 0
-8 3 -1 0
-8 4 -1 0
-8 2 0 1
-6 2 -1 0
-7 2 0 1
-5 2 -1 0
-2 2 0 1
-2 3 -1 0
-4 3 -1 0
-6 3 0 1
-9 4 0 1
-10 4 0 1
-8 4 -1 0
-8 3 0 1
-10 3 -1 0
-11 3 0 1
-9 3 -1 0
-7 3 -1 0
-5 3 -1 0
-3 3 0 1
-3 5 -1 0
-6 5 0 1
-5 5 -1 0
-6 6 -1 0
-6 7 -1 0
-6 5 0 1
-4 5 -1 0
-5 5 0 1
-3 4 0 1
-3 5 -1 0
-6 7 0 1
-8 7 -1 0
-9 7 0 1
-7 7 -1 0
-5 7 -1 0
-5 6 0 1
-6 8 -1 0
-7 8 0 1
-5 8 -1 0
-5 7 0 1
-5 5 0 1
-4 5 0 1
-2 4 0 1
-2 6 0 1
-4 7 0 1
-2 7 -1 0
-2 5 0 1
-1 3 0 1
-1 5 0 1
-1 7 0 1
-2 8 0 1
-1 8 -1 0
-1 6 0 1
-1 4 0 1
-1 8 1 0
-2 10 -1 0
-2 9 0 1
-1 9 -1 0
-1 7 0 1
-1 9 1 0
-1 8 0 1
-1 6 0 1
-2 11 -1 0
-2 10 0 1
-4 11 -1 0
-4 10 0 1
-3 10 -1 0
-1 10 -1 0
-1 9 0 1
-1 10 1 0
-1 8 0 1
-1 11 0 1
-2 12 0 1
-1 12 -1 0
-1 10 0 1
-1 12 1 0
-1 13 0 1
-1 11 0 1
-1 9 0 1
-1 7 0 1
-1 5 0 1
0 2 0 1
0 3 1 0
0 4 0 1
1 10 1 0
3 10 0 1
2 10 1 0
0 10 1 0
0 9 0 1
0 11 1 0
0 12 0 1
0 10 0 1
0 8 0 1
0 6 0 1
0 7 1 0
0 5 0 1
1 3 0 1
1 4 1 0
1 8 1 0
1 9 1 0
1 7 0 1
1 5 0 1
2 3 1 0
2 4 0 1
2 6 1 0
2 7 1 0
2 5 0 1
4 3 1 0
6 3 1 0
8 3 0 -1
7 3 1 0
5 3 1 0
3 3 1 0
3 4 1 0
6 3 0 -1
8 3 0 1
9 3 1 0
7 3 1 0
5 3 1 0
8 2 1 0
6 2 1 0
6 1 0 -1
6 3 0 -1
4 3 1 0
4 6 1 0
4 4 0 1
4 7 1 0
4 6 0 1
4 8 1 0
4 7 0 1
4 5 0 1
6 3 0 1
7 2 0 -1
8 1 0 -1
7 1 1 0
7 3 0 -1
5 3 1 0
8 4 1 0
6 4 1 0
7 4 0 1
5 4 1 0
