<?xml version="1.0" encoding="UTF-8" standalone="no"?>
<!-- Created with Inkscape (http://www.inkscape.org/) -->

<svg
   xmlns:dc="http://purl.org/dc/elements/1.1/"
   xmlns:cc="http://creativecommons.org/ns#"
   xmlns:rdf="http://www.w3.org/1999/02/22-rdf-syntax-ns#"
   xmlns:svg="http://www.w3.org/2000/svg"
   xmlns="http://www.w3.org/2000/svg"
   xmlns:sodipodi="http://sodipodi.sourceforge.net/DTD/sodipodi-0.dtd"
   xmlns:inkscape="http://www.inkscape.org/namespaces/inkscape"
   version="1.1"
   id="svg933"
   width="163.84"
   height="163.84"
   viewBox="0 0 163.84 163.84"
   sodipodi:docname="book-warning.svg"
   inkscape:version="0.92.4 (5da689c313, 2019-01-14)">
  <metadata
     id="metadata939">
    <rdf:RDF>
      <cc:Work
         rdf:about="">
        <dc:format>image/svg+xml</dc:format>
        <dc:type
           rdf:resource="http://purl.org/dc/dcmitype/StillImage" />
        <dc:title></dc:title>
      </cc:Work>
    </rdf:RDF>
  </metadata>
  <defs
     id="defs937" />
  <sodipodi:namedview
     pagecolor="#ffffff"
     bordercolor="#666666"
     borderopacity="1"
     objecttolerance="10"
     gridtolerance="10"
     guidetolerance="10"
     inkscape:pageopacity="0"
     inkscape:pageshadow="2"
     inkscape:window-width="2550"
     inkscape:window-height="1515"
     id="namedview935"
     showgrid="false"
     inkscape:zoom="4.0741505"
     inkscape:cx="4.6224783"
     inkscape:cy="62.547648"
     inkscape:window-x="0"
     inkscape:window-y="34"
     inkscape:window-maximized="0"
     inkscape:current-layer="svg933" />
  <path
     style="fill:#ff6600;stroke-width:0.31999999"
     d="m 116.62548,163.49456 c -5.3256,-0.61437 -10.93184,-2.57582 -15.63492,-5.47018 -3.742217,-2.30303 -9.511974,-8.07279 -11.815008,-11.81501 -4.331411,-7.03815 -6.368736,-15.63689 -5.536445,-23.36715 1.819706,-16.90132 13.711895,-29.978704 30.266373,-33.282764 4.16596,-0.83147 11.71187,-0.67253 15.70855,0.33086 13.81946,3.46948 24.22611,13.876134 27.69559,27.695594 0.45214,1.80095 0.69986,4.09768 0.81417,7.54854 0.14037,4.23765 0.0656,5.4377 -0.51307,8.24005 -3.39701,16.44943 -16.27215,28.27473 -32.82524,30.14866 -3.26921,0.37011 -4.74878,0.36492 -8.16,-0.0286 z m -95.272913,-13.8599 c -5.904522,-1.43074 -10.864441,-6.3092 -12.3971077,-12.1935 -0.429441,-1.64874 -0.489981,-7.81449 -0.489981,-49.902734 0,-53.262564 -0.17705,-49.001544 2.0751687,-49.94258 1.180296,-0.493159 1.682474,-0.377632 4.644832,1.068537 1.144,0.55848 3.219034,1.306714 4.611188,1.662743 2.487061,0.636038 3.392377,0.647324 51.930277,0.647324 42.646676,0 49.552356,0.06404 50.520336,0.468484 2.07565,0.86726 2.0582,0.697676 2.0582,20.011522 0,18.62238 -0.0309,18.99376 -1.65291,19.87384 -0.41089,0.22295 -2.40309,0.5138 -4.42709,0.64634 -11.06557,0.72463 -20.840267,5.12805 -28.613771,12.89027 -12.874925,12.856254 -16.615062,31.245674 -9.806464,48.216194 0.71513,1.78246 1.300234,3.60006 1.300234,4.0391 0,0.48115 -0.432202,1.23046 -1.088,1.88625 l -1.088,1.088 -27.952,-0.0272 C 29.590374,150.04635 22.632573,149.9448 21.352567,149.63464 Z M 20.017625,33.111609 C 14.512078,31.236456 10.386396,26.883077 8.9303213,21.412395 8.3299293,19.156635 8.3420693,15.02271 8.9560113,12.665639 10.072839,8.3778442 13.607359,4.0257321 17.547204,2.0871601 21.94519,-0.07683592 19.193975,0.02609708 72.785481,0.02050408 c 45.523559,-0.0048 48.547819,0.02906 49.592059,0.554444 0.75034,0.377512 1.25735,0.94581002 1.55872,1.74714502 0.42759,1.13692 0.39808,1.288625 -0.69089,3.552133 -1.12803,2.3446981 -2.13989,5.6104209 -2.13989,6.9064149 v 0.67381 H 73.0952 c -51.767357,0 -49.468997,-0.07428 -50.6679,1.637399 -0.615008,0.878047 -0.675993,2.474117 -0.139522,3.651542 0.843913,1.852188 -2.069063,1.751058 50.438315,1.751058 h 48.292397 l 0.20628,1.52 c 0.29811,2.196723 1.37693,5.254992 2.29055,6.493336 1.13244,1.534935 1.07635,3.26971 -0.14522,4.491279 l -0.93538,0.935385 -50.024627,-0.0082 -50.024614,-0.0082 z"
     id="path1486"
     inkscape:connector-curvature="0" />
  <text
     xml:space="preserve"
     style="font-style:normal;font-variant:normal;font-weight:normal;font-stretch:normal;font-size:81.68205261px;line-height:1.25;font-family:'Bitstream Charter';-inkscape-font-specification:'Bitstream Charter, Normal';font-variant-ligatures:normal;font-variant-caps:normal;font-variant-numeric:normal;font-feature-settings:normal;text-align:start;letter-spacing:0px;word-spacing:0px;writing-mode:lr-tb;text-anchor:start;fill:#000000;fill-opacity:1;stroke:none;stroke-width:2.04206944"
     x="107.19434"
     y="153.69992"
     id="text1490"><tspan
       sodipodi:role="line"
       id="tspan1488"
       x="107.19434"
       y="153.69992"
       style="font-style:normal;font-variant:normal;font-weight:normal;font-stretch:normal;font-size:81.68205261px;font-family:'Bitstream Charter';-inkscape-font-specification:'Bitstream Charter, Normal';font-variant-ligatures:normal;font-variant-caps:normal;font-variant-numeric:normal;font-feature-settings:normal;text-align:start;writing-mode:lr-tb;text-anchor:start;fill:#ffffff;stroke-width:2.04206944">!</tspan></text>
  <text
     xml:space="preserve"
     style="font-style:normal;font-weight:normal;font-size:40px;line-height:1.25;font-family:sans-serif;letter-spacing:0px;word-spacing:0px;fill:#000000;fill-opacity:1;stroke:none"
     x="-52.280838"
     y="209.98459"
     id="text1494"><tspan
       sodipodi:role="line"
       id="tspan1492"
       x="-52.280838"
       y="245.37521" /></text>
</svg>
